Lab01-1 /Testbench/xsim.log
#-----------------------------------------------------------
# xsim v2022.1 (64-bit)
# SW Build 3526262 on Mon Apr 18 15:47:01 MDT 2022
# IP Build 3524634 on Mon Apr 18 20:55:01 MDT 2022
# Start of session at: Sun Mar 24 09:27:31 2024
# Process ID: 24805
# Current directory: /home/ubuntu/asoc/caravel-soc_fpga-lab/fsic-sim/fsic_fpga/rtl/user/testbench/tc
# Command line: xsim -mode tcl -source {xsim.dir/tb_fsic_xelab/xsim_script.tcl}
# Log file: /home/ubuntu/asoc/caravel-soc_fpga-lab/fsic-sim/fsic_fpga/rtl/user/testbench/tc/xsim.log
# Journal file: /home/ubuntu/asoc/caravel-soc_fpga-lab/fsic-sim/fsic_fpga/rtl/user/testbench/tc/xsim.jou
# Running On: ubuntu2004, OS: Linux, CPU Frequency: 2808.014 MHz, CPU Physical cores: 2, Host memory: 10425 MB
#-----------------------------------------------------------
source xsim.dir/tb_fsic_xelab/xsim_script.tcl
# xsim {tb_fsic_xelab} -autoloadwcfg -tclbatch {log_wave.tcl}
Time resolution is 1 ps
open_wave_config /home/ubuntu/asoc/caravel-soc_fpga-lab/fsic-sim/fsic_fpga/rtl/user/testbench/tc/tb_fsic_xelab.wcfg
WARNING: Simulation object /tb_fsic/dut/U_MPRJ_IO0/vccd1 was not found in the design.
WARNING: Simulation object /tb_fsic/dut/U_MPRJ_IO0/vccd2 was not found in the design.
WARNING: Simulation object /tb_fsic/dut/U_MPRJ_IO0/vssd1 was not found in the design.
WARNING: Simulation object /tb_fsic/dut/U_MPRJ_IO0/vssd2 was not found in the design.
WARNING: Simulation object /tb_fsic/vccd1 was not found in the design.
WARNING: Simulation object /tb_fsic/vccd2 was not found in the design.
WARNING: Simulation object /tb_fsic/vssd1 was not found in the design.
WARNING: Simulation object /tb_fsic/vssd2 was not found in the design.
WARNING: Simulation object /tb_fsic/dut/AXIS_SW0/pre_rd_ptr_reg was not found in the design.
WARNING: Simulation object /tb_fsic/dut/AXIS_SW0/as_up_tvalid_reg was not found in the design.
WARNING: Simulation object /tb_fsic/dut/AXIS_SW0/as_aa_tvalid_reg was not found in the design.
WARNING: Simulation object /tb_fsic/dut/AXIS_SW0/delaynext was not found in the design.
WARNING: Simulation object /tb_fsic/dut/AXIS_SW0/pre_m_axis was not found in the design.
WARNING: Simulation object /tb_fsic/dut/U_USER_SUBSYS0/U_USRPRJ0/reg_edgedetect_done was not found in the design.
WARNING: Simulation object /tb_fsic/dut/U_USER_SUBSYS0/U_USRPRJ0/edgedetect_done was not found in the design.
WARNING: Simulation object /tb_fsic/dut/U_USER_SUBSYS0/U_USRPRJ0/rd_state was not found in the design.
WARNING: Simulation object /tb_fsic/dut/U_USER_SUBSYS0/U_USRPRJ0/rd_next_state was not found in the design.
WARNING: Simulation object /tb_fsic/dut/U_USER_SUBSYS0/U_USRPRJ0/reg_widthIn was not found in the design.
WARNING: Simulation object /tb_fsic/dut/U_USER_SUBSYS0/U_USRPRJ0/reg_heightIn was not found in the design.
WARNING: Simulation object /tb_fsic/dut/U_USER_SUBSYS0/U_USRPRJ0/reg_sw_in was not found in the design.
WARNING: Simulation object /tb_fsic/dut/U_USER_SUBSYS0/U_USRPRJ0/reg_rst was not found in the design.
WARNING: Simulation object /tb_fsic/dut/U_USER_SUBSYS0/U_USRPRJ0/crc32_stream_in was not found in the design.
WARNING: Simulation object /tb_fsic/dut/U_USER_SUBSYS0/U_USRPRJ0/crc32_stream_out was not found in the design.
WARNING: Simulation object /tb_fsic/dut/U_USER_SUBSYS0/U_USRPRJ0/reg_crc32_stream_in was not found in the design.
WARNING: Simulation object /tb_fsic/dut/U_USER_SUBSYS0/U_USRPRJ0/reg_crc32_stream_out was not found in the design.
WARNING: Simulation object /tb_fsic/dut/AXIS_SW0/as_up_tvalid_reg was not found in the design.
WARNING: Simulation object /tb_fsic/dut/AXIS_SW0/pre_rd_ptr_reg was not found in the design.
WARNING: Simulation object /tb_fsic/dut/AXIS_SW0/as_up_tvalid_reg was not found in the design.
WARNING: Simulation object /tb_fsic/dut/AXIS_SW0/as_aa_tvalid_reg was not found in the design.
WARNING: Simulation object /tb_fsic/dut/AXIS_SW0/delaynext was not found in the design.
WARNING: Simulation object /tb_fsic/dut/AXIS_SW0/pre_m_axis was not found in the design.
source log_wave.tcl
## log_wave -quiet -verbose -recursive *
## run all
test_soc: Test #1 
test_soc: TX/RX test
                 140=> soc POR Assert
                 140=> fpga POR Assert
                 140=> fpga reset Assert
                 180=> soc POR De-Assert
                 180=> fpga POR De-Assert
                 220=> fpga reset De-Assert
                 285=> fpga_as_to_is_init done
                 325=> fpga_cfg_write : fpga_axi_awaddr=0000, fpga_axi_awvalid=1, fpga_axi_awready=1, fpga_axi_wdata=00000001, axi_wstrb=1, fpga_axi_wvalid=1, fpga_axi_wready=1
                 525=> soc_is_cfg_write : wbs_adr=30003000, wbs_sel=0001, wbs_wdata=00000001
                 525=> soc rxen_ctl=1
                 525=> fpga rxen_ctl=1
                 965=> fpga_cfg_write : fpga_axi_awaddr=0000, fpga_axi_awvalid=1, fpga_axi_awready=1, fpga_axi_wdata=00000003, axi_wstrb=1, fpga_axi_wvalid=1, fpga_axi_wready=1
                1125=> soc_is_cfg_write : wbs_adr=30003000, wbs_sel=0001, wbs_wdata=00000003
                1125=> soc txen_ctl=1
                1125=> fpga txen_ctl=1
                1765=> test_soc_up_cfg_write : wbs_adr=30005000, wbs_sel=1111, wbs_wdata=00000001
                2005=> soc_up_cfg_read : wbs_adr=30000000, wbs_sel=1111
                2005=> soc wishbone read data result : send soc_cfg_read_event
                2005=> soc_up_cfg_read : got soc_cfg_read_event
test_soc_program: Program data length & tap parameters
                2285=> soc_up_cfg_write : wbs_adr=30000010, wbs_sel=1111, wbs_wdata=00000040
                2565=> soc_up_cfg_write : wbs_adr=30000020, wbs_sel=1111, wbs_wdata=00000000
                2845=> soc_up_cfg_write : wbs_adr=30000024, wbs_sel=1111, wbs_wdata=fffffff6
                3125=> soc_up_cfg_write : wbs_adr=30000028, wbs_sel=1111, wbs_wdata=fffffff7
                3405=> soc_up_cfg_write : wbs_adr=3000002c, wbs_sel=1111, wbs_wdata=00000017
                3685=> soc_up_cfg_write : wbs_adr=30000030, wbs_sel=1111, wbs_wdata=00000038
                3965=> soc_up_cfg_write : wbs_adr=30000034, wbs_sel=1111, wbs_wdata=0000003f
                4245=> soc_up_cfg_write : wbs_adr=30000038, wbs_sel=1111, wbs_wdata=00000038
                4525=> soc_up_cfg_write : wbs_adr=3000003c, wbs_sel=1111, wbs_wdata=00000017
                4805=> soc_up_cfg_write : wbs_adr=30000040, wbs_sel=1111, wbs_wdata=fffffff7
                5085=> soc_up_cfg_write : wbs_adr=30000044, wbs_sel=1111, wbs_wdata=fffffff6
                5365=> soc_up_cfg_write : wbs_adr=30000048, wbs_sel=1111, wbs_wdata=00000000
test_soc_program: finish! 
test_soc_program_check: Check Program data length & tap parameters
                5605=> soc_up_cfg_read : wbs_adr=30000010, wbs_sel=1111
                5605=> soc wishbone read data result : send soc_cfg_read_event
                5605=> soc_up_cfg_read : got soc_cfg_read_event
                5605=> test_soc_program_check_rpt [PASS] cfg_read_data_expect_value=00000040, cfg_read_data_captured=00000040
-----------------
                5885=> soc_up_cfg_read : wbs_adr=30000020, wbs_sel=1111
                5885=> soc wishbone read data result : send soc_cfg_read_event
                5885=> soc_up_cfg_read : got soc_cfg_read_event
                5885=> test_soc_program_check_rpt [PASS] cfg_read_data_expect_value=00000000, cfg_read_data_captured=00000000
-----------------
                6165=> soc_up_cfg_read : wbs_adr=30000024, wbs_sel=1111
                6165=> soc wishbone read data result : send soc_cfg_read_event
                6165=> soc_up_cfg_read : got soc_cfg_read_event
                6165=> test_soc_program_check_rpt [PASS] cfg_read_data_expect_value=fffffff6, cfg_read_data_captured=fffffff6
-----------------
                6445=> soc_up_cfg_read : wbs_adr=30000028, wbs_sel=1111
                6445=> soc wishbone read data result : send soc_cfg_read_event
                6445=> soc_up_cfg_read : got soc_cfg_read_event
                6445=> test_soc_program_check_rpt [PASS] cfg_read_data_expect_value=fffffff7, cfg_read_data_captured=fffffff7
-----------------
                6725=> soc_up_cfg_read : wbs_adr=3000002c, wbs_sel=1111
                6725=> soc wishbone read data result : send soc_cfg_read_event
                6725=> soc_up_cfg_read : got soc_cfg_read_event
                6725=> test_soc_program_check_rpt [PASS] cfg_read_data_expect_value=00000017, cfg_read_data_captured=00000017
-----------------
                7005=> soc_up_cfg_read : wbs_adr=30000030, wbs_sel=1111
                7005=> soc wishbone read data result : send soc_cfg_read_event
                7005=> soc_up_cfg_read : got soc_cfg_read_event
                7005=> test_soc_program_check_rpt [PASS] cfg_read_data_expect_value=00000038, cfg_read_data_captured=00000038
-----------------
                7285=> soc_up_cfg_read : wbs_adr=30000034, wbs_sel=1111
                7285=> soc wishbone read data result : send soc_cfg_read_event
                7285=> soc_up_cfg_read : got soc_cfg_read_event
                7285=> test_soc_program_check_rpt [PASS] cfg_read_data_expect_value=0000003f, cfg_read_data_captured=0000003f
-----------------
                7565=> soc_up_cfg_read : wbs_adr=30000038, wbs_sel=1111
                7565=> soc wishbone read data result : send soc_cfg_read_event
                7565=> soc_up_cfg_read : got soc_cfg_read_event
                7565=> test_soc_program_check_rpt [PASS] cfg_read_data_expect_value=00000038, cfg_read_data_captured=00000038
-----------------
                7845=> soc_up_cfg_read : wbs_adr=3000003c, wbs_sel=1111
                7845=> soc wishbone read data result : send soc_cfg_read_event
                7845=> soc_up_cfg_read : got soc_cfg_read_event
                7845=> test_soc_program_check_rpt [PASS] cfg_read_data_expect_value=00000017, cfg_read_data_captured=00000017
-----------------
                8125=> soc_up_cfg_read : wbs_adr=30000040, wbs_sel=1111
                8125=> soc wishbone read data result : send soc_cfg_read_event
                8125=> soc_up_cfg_read : got soc_cfg_read_event
                8125=> test_soc_program_check_rpt [PASS] cfg_read_data_expect_value=fffffff7, cfg_read_data_captured=fffffff7
-----------------
                8405=> soc_up_cfg_read : wbs_adr=30000044, wbs_sel=1111
                8405=> soc wishbone read data result : send soc_cfg_read_event
                8405=> soc_up_cfg_read : got soc_cfg_read_event
                8405=> test_soc_program_check_rpt [PASS] cfg_read_data_expect_value=fffffff6, cfg_read_data_captured=fffffff6
-----------------
                8685=> soc_up_cfg_read : wbs_adr=30000048, wbs_sel=1111
                8685=> soc wishbone read data result : send soc_cfg_read_event
                8685=> soc_up_cfg_read : got soc_cfg_read_event
                8685=> test_soc_program_check_rpt [PASS] cfg_read_data_expect_value=00000000, cfg_read_data_captured=00000000
-----------------
test_soc_program_check: finish! 
                8965=> soc_up_cfg_write : wbs_adr=30000000, wbs_sel=1111, wbs_wdata=00000001
test_soc_notify_fpga: soc cfg read/write test - check soc to fpga cfg write value part
test_soc_notify_fpga: AA Mail Box read/write test - soc notify fpga start !
                9285=> soc_aa_cfg_write : wbs_adr=30002000, wbs_sel=1111, wbs_wdata=5a5a5a5a
                9765=> get soc_to_fpga_mailbox_write_addr_captured be : soc_to_fpga_mailbox_write_addr_captured =xxxxxxxx, fpga_is_as_tdata=f0002000
                9765=> get soc_to_fpga_mailbox_write_addr_captured af : soc_to_fpga_mailbox_write_addr_captured =f0002000, fpga_is_as_tdata=f0002000
               10005=> get soc_to_fpga_mailbox_write_data_captured be : soc_to_fpga_mailbox_write_data_captured =xxxxxxxx, fpga_is_as_tdata=5a5a5a5a
               10005=> get soc_to_fpga_mailbox_write_data_captured af : soc_to_fpga_mailbox_write_data_captured =5a5a5a5a, fpga_is_as_tdata=5a5a5a5a
               10005=> soc_to_fpga_mailbox_write_data_captured : send soc_to_fpga_mailbox_write_event
               10005=> test_soc_notify_fpga : got soc_to_fpga_mailbox_write_event
               10005=> test_soc_notify_fpga [PASS] soc_to_fpga_mailbox_write_addr_expect_value=0002000, soc_to_fpga_mailbox_write_addr_captured[27:0]=0002000
               10005=> test_soc_notify_fpga [PASS] soc_to_fpga_mailbox_write_addr_BE_expect_value=f, soc_to_fpga_mailbox_write_addr_captured[31:28]=f
               10005=> test_soc_notify_fpga [PASS] soc_to_fpga_mailbox_write_data_expect_value=5a5a5a5a, soc_to_fpga_mailbox_write_data_captured=5a5a5a5a
test_soc_notify_fpga: AA Mail Box read/write test - end
test_soc_notify_fpga:  Soc notify fpga finish !
--------------------------------------------------------------------
test_fpga_stream:  start!
test_fpga_stream_req start!
               10045=> fpga_axis_req send data, fpga_as_is_tupsb = 00000, fpga_as_is_tstrb = 0000, fpga_as_is_tkeep = 0000, fpga_as_is_tlast = 0, fpga_as_is_tdata = 00000000
               10085=> fpga_axis_req send data, fpga_as_is_tupsb = 00001, fpga_as_is_tstrb = 0000, fpga_as_is_tkeep = 0000, fpga_as_is_tlast = 0, fpga_as_is_tdata = 00000001
               10125=> fpga_axis_req send data, fpga_as_is_tupsb = 00010, fpga_as_is_tstrb = 0000, fpga_as_is_tkeep = 0000, fpga_as_is_tlast = 0, fpga_as_is_tdata = 00000002
               10165=> fpga_axis_req send data, fpga_as_is_tupsb = 00011, fpga_as_is_tstrb = 0000, fpga_as_is_tkeep = 0000, fpga_as_is_tlast = 0, fpga_as_is_tdata = 00000003
               10205=> fpga_axis_req send data, fpga_as_is_tupsb = 00100, fpga_as_is_tstrb = 0000, fpga_as_is_tkeep = 0000, fpga_as_is_tlast = 0, fpga_as_is_tdata = 00000004
               10245=> fpga_axis_req send data, fpga_as_is_tupsb = 00101, fpga_as_is_tstrb = 0000, fpga_as_is_tkeep = 0000, fpga_as_is_tlast = 0, fpga_as_is_tdata = 00000005
               10285=> fpga_axis_req send data, fpga_as_is_tupsb = 00110, fpga_as_is_tstrb = 0000, fpga_as_is_tkeep = 0000, fpga_as_is_tlast = 0, fpga_as_is_tdata = 00000006
               10325=> fpga_axis_req send data, fpga_as_is_tupsb = 00111, fpga_as_is_tstrb = 0000, fpga_as_is_tkeep = 0000, fpga_as_is_tlast = 0, fpga_as_is_tdata = 00000007
               10365=> fpga_axis_req send data, fpga_as_is_tupsb = 01000, fpga_as_is_tstrb = 0000, fpga_as_is_tkeep = 0000, fpga_as_is_tlast = 0, fpga_as_is_tdata = 00000008
               10405=> fpga_axis_req send data, fpga_as_is_tupsb = 01001, fpga_as_is_tstrb = 0000, fpga_as_is_tkeep = 0000, fpga_as_is_tlast = 0, fpga_as_is_tdata = 00000009
               10445=> fpga_axis_req send data, fpga_as_is_tupsb = 01010, fpga_as_is_tstrb = 0000, fpga_as_is_tkeep = 0000, fpga_as_is_tlast = 0, fpga_as_is_tdata = 0000000a
               10485=> fpga_axis_req send data, fpga_as_is_tupsb = 01011, fpga_as_is_tstrb = 0000, fpga_as_is_tkeep = 0000, fpga_as_is_tlast = 0, fpga_as_is_tdata = 0000000b
               10525=> fpga_axis_req send data, fpga_as_is_tupsb = 01100, fpga_as_is_tstrb = 0000, fpga_as_is_tkeep = 0000, fpga_as_is_tlast = 0, fpga_as_is_tdata = 0000000c
               10565=> fpga_axis_req send data, fpga_as_is_tupsb = 01101, fpga_as_is_tstrb = 0000, fpga_as_is_tkeep = 0000, fpga_as_is_tlast = 0, fpga_as_is_tdata = 0000000d
               10605=> fpga_axis_req send data, fpga_as_is_tupsb = 01110, fpga_as_is_tstrb = 0000, fpga_as_is_tkeep = 0000, fpga_as_is_tlast = 0, fpga_as_is_tdata = 0000000e
               10645=> fpga_axis_req send data, fpga_as_is_tupsb = 01111, fpga_as_is_tstrb = 0000, fpga_as_is_tkeep = 0000, fpga_as_is_tlast = 0, fpga_as_is_tdata = 0000000f
               10685=> fpga_axis_req send data, fpga_as_is_tupsb = 10000, fpga_as_is_tstrb = 0000, fpga_as_is_tkeep = 0000, fpga_as_is_tlast = 0, fpga_as_is_tdata = 00000010
               10965=> get soc_to_fpga_axis be : soc_to_fpga_axis_captured_count=  0,  soc_to_fpga_axis_captured[  0] =xxxxxxxxxxxx, fpga_is_as_tupsb=00, fpga_is_as_tstrb=0, fpga_is_as_tkeep=0 , fpga_is_as_tlast=0, fpga_is_as_tdata=00000000
               10965=> get soc_to_fpga_axis af : soc_to_fpga_axis_captured_count=  0,  soc_to_fpga_axis_captured[  0] =000000000000, fpga_is_as_tupsb=00, fpga_is_as_tstrb=0, fpga_is_as_tkeep=0 , fpga_is_as_tlast=0, fpga_is_as_tdata=00000000
               11525=> get soc_to_fpga_axis be : soc_to_fpga_axis_captured_count=  1,  soc_to_fpga_axis_captured[  1] =xxxxxxxxxxxx, fpga_is_as_tupsb=0X, fpga_is_as_tstrb=0, fpga_is_as_tkeep=0 , fpga_is_as_tlast=0, fpga_is_as_tdata=00000000
               11525=> get soc_to_fpga_axis af : soc_to_fpga_axis_captured_count=  1,  soc_to_fpga_axis_captured[  1] =0X0000000000, fpga_is_as_tupsb=0X, fpga_is_as_tstrb=0, fpga_is_as_tkeep=0 , fpga_is_as_tlast=0, fpga_is_as_tdata=00000000
               12085=> get soc_to_fpga_axis be : soc_to_fpga_axis_captured_count=  2,  soc_to_fpga_axis_captured[  2] =xxxxxxxxxxxx, fpga_is_as_tupsb=0X, fpga_is_as_tstrb=0, fpga_is_as_tkeep=0 , fpga_is_as_tlast=0, fpga_is_as_tdata=fffffff6
               12085=> get soc_to_fpga_axis af : soc_to_fpga_axis_captured_count=  2,  soc_to_fpga_axis_captured[  2] =0X00fffffff6, fpga_is_as_tupsb=0X, fpga_is_as_tstrb=0, fpga_is_as_tkeep=0 , fpga_is_as_tlast=0, fpga_is_as_tdata=fffffff6
               12645=> get soc_to_fpga_axis be : soc_to_fpga_axis_captured_count=  3,  soc_to_fpga_axis_captured[  3] =xxxxxxxxxxxx, fpga_is_as_tupsb=0X, fpga_is_as_tstrb=0, fpga_is_as_tkeep=0 , fpga_is_as_tlast=0, fpga_is_as_tdata=ffffffe3
               12645=> get soc_to_fpga_axis af : soc_to_fpga_axis_captured_count=  3,  soc_to_fpga_axis_captured[  3] =0X00ffffffe3, fpga_is_as_tupsb=0X, fpga_is_as_tstrb=0, fpga_is_as_tkeep=0 , fpga_is_as_tlast=0, fpga_is_as_tdata=ffffffe3
               13205=> get soc_to_fpga_axis be : soc_to_fpga_axis_captured_count=  4,  soc_to_fpga_axis_captured[  4] =xxxxxxxxxxxx, fpga_is_as_tupsb=0X, fpga_is_as_tstrb=0, fpga_is_as_tkeep=0 , fpga_is_as_tlast=0, fpga_is_as_tdata=ffffffe7
               13205=> get soc_to_fpga_axis af : soc_to_fpga_axis_captured_count=  4,  soc_to_fpga_axis_captured[  4] =0X00ffffffe7, fpga_is_as_tupsb=0X, fpga_is_as_tstrb=0, fpga_is_as_tkeep=0 , fpga_is_as_tlast=0, fpga_is_as_tdata=ffffffe7
               13765=> get soc_to_fpga_axis be : soc_to_fpga_axis_captured_count=  5,  soc_to_fpga_axis_captured[  5] =xxxxxxxxxxxx, fpga_is_as_tupsb=0X, fpga_is_as_tstrb=0, fpga_is_as_tkeep=0 , fpga_is_as_tlast=0, fpga_is_as_tdata=00000023
               13765=> get soc_to_fpga_axis af : soc_to_fpga_axis_captured_count=  5,  soc_to_fpga_axis_captured[  5] =0X0000000023, fpga_is_as_tupsb=0X, fpga_is_as_tstrb=0, fpga_is_as_tkeep=0 , fpga_is_as_tlast=0, fpga_is_as_tdata=00000023
               14325=> get soc_to_fpga_axis be : soc_to_fpga_axis_captured_count=  6,  soc_to_fpga_axis_captured[  6] =xxxxxxxxxxxx, fpga_is_as_tupsb=0X, fpga_is_as_tstrb=0, fpga_is_as_tkeep=0 , fpga_is_as_tlast=0, fpga_is_as_tdata=0000009e
               14325=> get soc_to_fpga_axis af : soc_to_fpga_axis_captured_count=  6,  soc_to_fpga_axis_captured[  6] =0X000000009e, fpga_is_as_tupsb=0X, fpga_is_as_tstrb=0, fpga_is_as_tkeep=0 , fpga_is_as_tlast=0, fpga_is_as_tdata=0000009e
               14885=> get soc_to_fpga_axis be : soc_to_fpga_axis_captured_count=  7,  soc_to_fpga_axis_captured[  7] =xxxxxxxxxxxx, fpga_is_as_tupsb=0X, fpga_is_as_tstrb=0, fpga_is_as_tkeep=0 , fpga_is_as_tlast=0, fpga_is_as_tdata=00000151
               14885=> get soc_to_fpga_axis af : soc_to_fpga_axis_captured_count=  7,  soc_to_fpga_axis_captured[  7] =0X0000000151, fpga_is_as_tupsb=0X, fpga_is_as_tstrb=0, fpga_is_as_tkeep=0 , fpga_is_as_tlast=0, fpga_is_as_tdata=00000151
               15445=> get soc_to_fpga_axis be : soc_to_fpga_axis_captured_count=  8,  soc_to_fpga_axis_captured[  8] =xxxxxxxxxxxx, fpga_is_as_tupsb=0X, fpga_is_as_tstrb=0, fpga_is_as_tkeep=0 , fpga_is_as_tlast=0, fpga_is_as_tdata=0000021b
               15445=> get soc_to_fpga_axis af : soc_to_fpga_axis_captured_count=  8,  soc_to_fpga_axis_captured[  8] =X0000000021b, fpga_is_as_tupsb=0X, fpga_is_as_tstrb=0, fpga_is_as_tkeep=0 , fpga_is_as_tlast=0, fpga_is_as_tdata=0000021b
               15565=> fpga_axis_req send data, fpga_as_is_tupsb = 10001, fpga_as_is_tstrb = 0000, fpga_as_is_tkeep = 0000, fpga_as_is_tlast = 0, fpga_as_is_tdata = 00000011
               15605=> fpga_axis_req send data, fpga_as_is_tupsb = 10010, fpga_as_is_tstrb = 0000, fpga_as_is_tkeep = 0000, fpga_as_is_tlast = 0, fpga_as_is_tdata = 00000012
               15645=> fpga_axis_req send data, fpga_as_is_tupsb = 10011, fpga_as_is_tstrb = 0000, fpga_as_is_tkeep = 0000, fpga_as_is_tlast = 0, fpga_as_is_tdata = 00000013
               15685=> fpga_axis_req send data, fpga_as_is_tupsb = 10100, fpga_as_is_tstrb = 0000, fpga_as_is_tkeep = 0000, fpga_as_is_tlast = 0, fpga_as_is_tdata = 00000014
               15725=> fpga_axis_req send data, fpga_as_is_tupsb = 10101, fpga_as_is_tstrb = 0000, fpga_as_is_tkeep = 0000, fpga_as_is_tlast = 0, fpga_as_is_tdata = 00000015
               15765=> fpga_axis_req send data, fpga_as_is_tupsb = 10110, fpga_as_is_tstrb = 0000, fpga_as_is_tkeep = 0000, fpga_as_is_tlast = 0, fpga_as_is_tdata = 00000016
               15805=> fpga_axis_req send data, fpga_as_is_tupsb = 10111, fpga_as_is_tstrb = 0000, fpga_as_is_tkeep = 0000, fpga_as_is_tlast = 0, fpga_as_is_tdata = 00000017
               15845=> fpga_axis_req send data, fpga_as_is_tupsb = 11000, fpga_as_is_tstrb = 0000, fpga_as_is_tkeep = 0000, fpga_as_is_tlast = 0, fpga_as_is_tdata = 00000018
               15885=> fpga_axis_req send data, fpga_as_is_tupsb = 11001, fpga_as_is_tstrb = 0000, fpga_as_is_tkeep = 0000, fpga_as_is_tlast = 0, fpga_as_is_tdata = 00000019
               16005=> get soc_to_fpga_axis be : soc_to_fpga_axis_captured_count=  9,  soc_to_fpga_axis_captured[  9] =xxxxxxxxxxxx, fpga_is_as_tupsb=0X, fpga_is_as_tstrb=0, fpga_is_as_tkeep=0 , fpga_is_as_tlast=0, fpga_is_as_tdata=000002dc
               16005=> get soc_to_fpga_axis af : soc_to_fpga_axis_captured_count=  9,  soc_to_fpga_axis_captured[  9] =XX00000002dc, fpga_is_as_tupsb=0X, fpga_is_as_tstrb=0, fpga_is_as_tkeep=0 , fpga_is_as_tlast=0, fpga_is_as_tdata=000002dc
               16565=> get soc_to_fpga_axis be : soc_to_fpga_axis_captured_count= 10,  soc_to_fpga_axis_captured[ 10] =xxxxxxxxxxxx, fpga_is_as_tupsb=0X, fpga_is_as_tstrb=0, fpga_is_as_tkeep=0 , fpga_is_as_tlast=0, fpga_is_as_tdata=00000393
               16565=> get soc_to_fpga_axis af : soc_to_fpga_axis_captured_count= 10,  soc_to_fpga_axis_captured[ 10] =XX0000000393, fpga_is_as_tupsb=0X, fpga_is_as_tstrb=0, fpga_is_as_tkeep=0 , fpga_is_as_tlast=0, fpga_is_as_tdata=00000393
               17125=> get soc_to_fpga_axis be : soc_to_fpga_axis_captured_count= 11,  soc_to_fpga_axis_captured[ 11] =xxxxxxxxxxxx, fpga_is_as_tupsb=0X, fpga_is_as_tstrb=0, fpga_is_as_tkeep=0 , fpga_is_as_tlast=0, fpga_is_as_tdata=0000044a
               17125=> get soc_to_fpga_axis af : soc_to_fpga_axis_captured_count= 11,  soc_to_fpga_axis_captured[ 11] =XX000000044a, fpga_is_as_tupsb=0X, fpga_is_as_tstrb=0, fpga_is_as_tkeep=0 , fpga_is_as_tlast=0, fpga_is_as_tdata=0000044a
               17685=> get soc_to_fpga_axis be : soc_to_fpga_axis_captured_count= 12,  soc_to_fpga_axis_captured[ 12] =xxxxxxxxxxxx, fpga_is_as_tupsb=0X, fpga_is_as_tstrb=0, fpga_is_as_tkeep=0 , fpga_is_as_tlast=0, fpga_is_as_tdata=00000501
               17685=> get soc_to_fpga_axis af : soc_to_fpga_axis_captured_count= 12,  soc_to_fpga_axis_captured[ 12] =XX0000000501, fpga_is_as_tupsb=0X, fpga_is_as_tstrb=0, fpga_is_as_tkeep=0 , fpga_is_as_tlast=0, fpga_is_as_tdata=00000501
               18245=> get soc_to_fpga_axis be : soc_to_fpga_axis_captured_count= 13,  soc_to_fpga_axis_captured[ 13] =xxxxxxxxxxxx, fpga_is_as_tupsb=0X, fpga_is_as_tstrb=0, fpga_is_as_tkeep=0 , fpga_is_as_tlast=0, fpga_is_as_tdata=000005b8
               18245=> get soc_to_fpga_axis af : soc_to_fpga_axis_captured_count= 13,  soc_to_fpga_axis_captured[ 13] =XX00000005b8, fpga_is_as_tupsb=0X, fpga_is_as_tstrb=0, fpga_is_as_tkeep=0 , fpga_is_as_tlast=0, fpga_is_as_tdata=000005b8
               18805=> get soc_to_fpga_axis be : soc_to_fpga_axis_captured_count= 14,  soc_to_fpga_axis_captured[ 14] =xxxxxxxxxxxx, fpga_is_as_tupsb=0X, fpga_is_as_tstrb=0, fpga_is_as_tkeep=0 , fpga_is_as_tlast=0, fpga_is_as_tdata=0000066f
               18805=> get soc_to_fpga_axis af : soc_to_fpga_axis_captured_count= 14,  soc_to_fpga_axis_captured[ 14] =XX000000066f, fpga_is_as_tupsb=0X, fpga_is_as_tstrb=0, fpga_is_as_tkeep=0 , fpga_is_as_tlast=0, fpga_is_as_tdata=0000066f
               19365=> get soc_to_fpga_axis be : soc_to_fpga_axis_captured_count= 15,  soc_to_fpga_axis_captured[ 15] =xxxxxxxxxxxx, fpga_is_as_tupsb=0x, fpga_is_as_tstrb=0, fpga_is_as_tkeep=0 , fpga_is_as_tlast=0, fpga_is_as_tdata=00000726
               19365=> get soc_to_fpga_axis af : soc_to_fpga_axis_captured_count= 15,  soc_to_fpga_axis_captured[ 15] =XX0000000726, fpga_is_as_tupsb=0x, fpga_is_as_tstrb=0, fpga_is_as_tkeep=0 , fpga_is_as_tlast=0, fpga_is_as_tdata=00000726
               19925=> get soc_to_fpga_axis be : soc_to_fpga_axis_captured_count= 16,  soc_to_fpga_axis_captured[ 16] =xxxxxxxxxxxx, fpga_is_as_tupsb=x0, fpga_is_as_tstrb=0, fpga_is_as_tkeep=0 , fpga_is_as_tlast=0, fpga_is_as_tdata=000007dd
               19925=> get soc_to_fpga_axis af : soc_to_fpga_axis_captured_count= 16,  soc_to_fpga_axis_captured[ 16] =X000000007dd, fpga_is_as_tupsb=x0, fpga_is_as_tstrb=0, fpga_is_as_tkeep=0 , fpga_is_as_tlast=0, fpga_is_as_tdata=000007dd
               20485=> get soc_to_fpga_axis be : soc_to_fpga_axis_captured_count= 17,  soc_to_fpga_axis_captured[ 17] =xxxxxxxxxxxx, fpga_is_as_tupsb=xX, fpga_is_as_tstrb=0, fpga_is_as_tkeep=0 , fpga_is_as_tlast=0, fpga_is_as_tdata=00000894
               20485=> get soc_to_fpga_axis af : soc_to_fpga_axis_captured_count= 17,  soc_to_fpga_axis_captured[ 17] =XX0000000894, fpga_is_as_tupsb=xX, fpga_is_as_tstrb=0, fpga_is_as_tkeep=0 , fpga_is_as_tlast=0, fpga_is_as_tdata=00000894
               20605=> fpga_axis_req send data, fpga_as_is_tupsb = 11010, fpga_as_is_tstrb = 0000, fpga_as_is_tkeep = 0000, fpga_as_is_tlast = 0, fpga_as_is_tdata = 0000001a
               20645=> fpga_axis_req send data, fpga_as_is_tupsb = 11011, fpga_as_is_tstrb = 0000, fpga_as_is_tkeep = 0000, fpga_as_is_tlast = 0, fpga_as_is_tdata = 0000001b
               20685=> fpga_axis_req send data, fpga_as_is_tupsb = 11100, fpga_as_is_tstrb = 0000, fpga_as_is_tkeep = 0000, fpga_as_is_tlast = 0, fpga_as_is_tdata = 0000001c
               20725=> fpga_axis_req send data, fpga_as_is_tupsb = 11101, fpga_as_is_tstrb = 0000, fpga_as_is_tkeep = 0000, fpga_as_is_tlast = 0, fpga_as_is_tdata = 0000001d
               20765=> fpga_axis_req send data, fpga_as_is_tupsb = 11110, fpga_as_is_tstrb = 0000, fpga_as_is_tkeep = 0000, fpga_as_is_tlast = 0, fpga_as_is_tdata = 0000001e
               20805=> fpga_axis_req send data, fpga_as_is_tupsb = 11111, fpga_as_is_tstrb = 0000, fpga_as_is_tkeep = 0000, fpga_as_is_tlast = 0, fpga_as_is_tdata = 0000001f
               20845=> fpga_axis_req send data, fpga_as_is_tupsb = 00000, fpga_as_is_tstrb = 0000, fpga_as_is_tkeep = 0000, fpga_as_is_tlast = 0, fpga_as_is_tdata = 00000020
               20885=> fpga_axis_req send data, fpga_as_is_tupsb = 00001, fpga_as_is_tstrb = 0000, fpga_as_is_tkeep = 0000, fpga_as_is_tlast = 0, fpga_as_is_tdata = 00000021
